9.520040097852599734e-03 9.144479394838861755e-03 8.547710928029564684e-03 7.735291676248491274e-03 6.612070092496125616e-03
3.309588676024582260e-03 3.855396972481826921e-03 4.053826798066395044e-03 3.929637233376978914e-03 3.454306186061010652e-03
8.420423351042503890e-03 5.519162567687769388e-03 3.700637056917420540e-03 2.642677612726258146e-03 2.088542381673015331e-03
2.603346082606173423e-02 1.798627744763100014e-02 1.266160607084868515e-02 9.005099372776562139e-03 6.367752573818543857e-03
5.709139406546619860e-02 3.761773004608816307e-02 2.564854485997342115e-02 1.772508839381546283e-02 1.198848148639655373e-02
